…
## Rows: 119390 Columns: 32

## ── Column specification ────────────────────────────────────────────────────────
## Delimiter: ","
## chr  (13): hotel, arrival_date_month, meal, country, market_segment, distrib...
## dbl  (18): is_canceled, lead_time, arrival_date_year, arrival_date_week_numb...
## date  (1): reservation_status_date
## 
## ℹ Use `spec()` to retrieve the full column specification for this data.
## ℹ Specify the column types or set `show_col_types = FALSE` to quiet this message.

hotels %>%
  select(hotel, lead_time)

## # A tibble: 119,390 × 2
##    hotel        lead_time
##    <chr>            <dbl>
##  1 Resort Hotel       342
##  2 Resort Hotel       737
##  3 Resort Hotel         7
##  4 Resort Hotel        13
##  5 Resort Hotel        14
##  6 Resort Hotel        14
##  7 Resort Hotel         0
##  8 Resort Hotel         9
##  9 Resort Hotel        85
## 10 Resort Hotel        75
## # … with 119,380 more rows

hotels %>%
  select(-agent)

## # A tibble: 119,390 × 31
##    hotel        is_canceled lead_time arrival_date_year arrival_date_month
##    <chr>              <dbl>     <dbl>             <dbl> <chr>             
##  1 Resort Hotel           0       342              2015 July              
##  2 Resort Hotel           0       737              2015 July              
##  3 Resort Hotel           0         7              2015 July              
##  4 Resort Hotel           0        13              2015 July              
##  5 Resort Hotel           0        14              2015 July              
##  6 Resort Hotel           0        14              2015 July              
##  7 Resort Hotel           0         0              2015 July              
##  8 Resort Hotel           0         9              2015 July              
##  9 Resort Hotel           1        85              2015 July              
## 10 Resort Hotel           1        75              2015 July              
## # … with 119,380 more rows, and 26 more variables:
## #   arrival_date_week_number <dbl>, arrival_date_day_of_month <dbl>,
## #   stays_in_weekend_nights <dbl>, stays_in_week_nights <dbl>, adults <dbl>,
## #   children <dbl>, babies <dbl>, meal <chr>, country <chr>,
## #   market_segment <chr>, distribution_channel <chr>, is_repeated_guest <dbl>,
## #   previous_cancellations <dbl>, previous_bookings_not_canceled <dbl>,
## #   reserved_room_type <chr>, assigned_room_type <chr>, …
